agencia;conta;saldo;status
0101;12225-6;100,00;A
0101;12226-8;3200,50;A
3202;40011-1;-35,12;I
3202;54001-2;0,00;P
6545;0646-2;89,22;I
3202;00321-2;34500,00;B
3562;00421-2;650,62;A
6545;06546-2;89,22;I
0101;12225-6;100,00;A
0101;12226-8;3200,50;A
3202;40011-1;-35,12;I
3202;54001-2;0,00;P
6545;0646-2;89,22;I
3202;00321-2;34500,00;B
3562;00421-2;650,62;A
6545;06546-2;89,22;I
0101;12225-6;100,00;A
0101;12226-8;3200,50;A
3202;40011-1;-35,12;I
3202;54001-2;0,00;P
6545;0646-2;89,22;I
3202;00321-2;34500,00;B
3562;00421-2;650,62;A
